[
  {
     "title":"127 Hours"
  },
  {
     "title":"12 Monkeys"
  },
  {
     "title":"12 Years a Slave"
  },
  {
     "title":"2012"
  },
  {
     "title":"21 Jump Street"
  },
  {
     "title":"22 Bullets"
  },
  {
     "title":"22 Jump Street"
  },
  {
     "title":"23 - Nicht ist so wie es scheint"
  },
  {
     "title":"300 - Rise of an Empire"
  },
  {
     "title":"39,90"
  },
  {
     "title":"3 Days to Kill"
  },
  {
     "title":"Ab durch die Hecke"
  },
  {
     "title":"Air"
  },
  {
     "title":"American Hustle"
  },
  {
     "title":"American Sniper"
  },
  {
     "title":"American Soldiers - Ein Tag im Irak"
  },
  {
     "title":"American Ultra"
  },
  {
     "title":"A million ways to die in the west"
  },
  {
     "title":"Anchorman 2 - Die Legende kehrt zurück"
  },
  {
     "title":"As Above, So Below"
  },
  {
     "title":"Babylon A D"
  },
  {
     "title":"Back to the Future 2"
  },
  {
     "title":"Back to the Future 3"
  },
  {
     "title":"Back to the Future"
  },
  {
     "title":"Bad Lieutenant"
  },
  {
     "title":"Bad Neighbors"
  },
  {
     "title":"Batman Begins"
  },
  {
     "title":"Battleground - Helden im Feuersturm"
  },
  {
     "title":"Beim ersten mal"
  },
  {
     "title":"Beziehungsweise New York"
  },
  {
     "title":"Big Game"
  },
  {
     "title":"Birdman"
  },
  {
     "title":"Bone Tomahawk"
  },
  {
     "title":"Bros Before Hos"
  },
  {
     "title":"Chappie Chappie"
  },
  {
     "title":"Cloudatlas"
  },
  {
     "title":"Cockneys vs Zombies"
  },
  {
     "title":"Coconut Hero"
  },
  {
     "title":"Codename U.N.C.L.E."
  },
  {
     "title":"Cosmopolis"
  },
  {
     "title":"Crank"
  },
  {
     "title":"Creed - Rocky's Legacy"
  },
  {
     "title":"Crows Zero"
  },
  {
     "title":"Cyrus - Meine Freundin ihr Sohn und ich"
  },
  {
     "title":"Daddys Girl"
  },
  {
     "title":"Dallas Buyers Club"
  },
  {
     "title":"Dark Shadows"
  },
  {
     "title":"Das ist das Ende"
  },
  {
     "title":"Date Night"
  },
  {
     "title":"Dating Queen"
  },
  {
     "title":"Deadheads"
  },
  {
     "title":"Deadpool"
  },
  {
     "title":"Denk wie ein Mann 2"
  },
  {
     "title":"Der Grosse Crash"
  },
  {
     "title":"Der Hobbit_ Die Schlacht Der Fünf Heer"
  },
  {
     "title":"Der Hundertjährige der aus dem Fenster stieg und verschwand"
  },
  {
     "title":"Der Kleine Nick Macht Ferien"
  },
  {
     "title":"Der Lieferheld"
  },
  {
     "title":"Der Marsianer - Rettet Mark Watney"
  },
  {
     "title":"Der Richter - Recht oder Ehre"
  },
  {
     "title":"Der Zoowärter"
  },
  {
     "title":"Devils Due - Teufelsbrut"
  },
  {
     "title":"Devils of War"
  },
  {
     "title":"Die Abenteuer von Mr Peabody und Sherman"
  },
  {
     "title":"Die Coopers - Schlimmer Geht Immer"
  },
  {
     "title":"Die Highligen Drei Könige"
  },
  {
     "title":"Die Kunst zu gewinnen - Moneyball"
  },
  {
     "title":"Die Monster AG"
  },
  {
     "title":"Die Peanuts - Der Film"
  },
  {
     "title":"Die Schadenfreundinnen"
  },
  {
     "title":"Die Simpsons - Der Film"
  },
  {
     "title":"Die Tür"
  },
  {
     "title":"Die Vorsehung"
  },
  {
     "title":"Dirty Wars"
  },
  {
     "title":"Donnie Darko"
  },
  {
     "title":"Dredd"
  },
  {
     "title":"Dumm und Dümmer 2"
  },
  {
     "title":"Edge of Tomorrow"
  },
  {
     "title":"Ein Mord mit Aussicht"
  },
  {
     "title":"Elysium"
  },
  {
     "title":"Emil und die Detektive"
  },
  {
     "title":"End of Watch"
  },
  {
     "title":"Escobar - Paradise Lost"
  },
  {
     "title":"ET"
  },
  {
     "title":"Everest"
  },
  {
     "title":"Ex Machina"
  },
  {
     "title":"Exodus - Götter Und Könige"
  },
  {
     "title":"Fast and Furious 6"
  },
  {
     "title":"Fast and Furious 7"
  },
  {
     "title":"Fear And Loathing In Las Vegas"
  },
  {
     "title":"Fearless"
  },
  {
     "title":"Fields of the Dead"
  },
  {
     "title":"Final Destination 4"
  },
  {
     "title":"Findet Nemo"
  },
  {
     "title":"Fluch der Karibik 1 - Der Kurs der Black Pearl"
  },
  {
     "title":"Fluch der Karibik 2 - Des Toten Mannes Truhe"
  },
  {
     "title":"Fluch der Karibik 3 - Am Ende der Welt"
  },
  {
     "title":"Fluch der Karibik 4 - Fremde Gezeiten"
  },
  {
     "title":"Focus"
  },
  {
     "title":"Four Rooms"
  },
  {
     "title":"Free Birds"
  },
  {
     "title":"Frontier(s)"
  },
  {
     "title":"Full Metal Jacket"
  },
  {
     "title":"Für immer Single"
  },
  {
     "title":"Für immer vielleicht"
  },
  {
     "title":"Fury - Herz Aus Stahl"
  },
  {
     "title":"Gamer"
  },
  {
     "title":"Goal of the Dead"
  },
  {
     "title":"Godzilla"
  },
  {
     "title":"Gone Girl - Das Perfekte Opfer"
  },
  {
     "title":"Grand Budapest Hotel"
  },
  {
     "title":"Grave Encounters 2"
  },
  {
     "title":"Green Zone"
  },
  {
     "title":"Halloween"
  },
  {
     "title":"Hancock"
  },
  {
     "title":"Heil"
  },
  {
     "title":"Hero"
  },
  {
     "title":"Hijacking Todesangst - In der Gewalt von Piraten"
  },
  {
     "title":"Hitman - Agent 47"
  },
  {
     "title":"Horton hört ein Hu"
  },
  {
     "title":"How to Train Your Dragon 2"
  },
  {
     "title":"I am Legend"
  },
  {
     "title":"Ice Age 1"
  },
  {
     "title":"Ice Age 2"
  },
  {
     "title":"Ich darf nicht schlafen"
  },
  {
     "title":"Ichi the Killer"
  },
  {
     "title":"Idiocracy"
  },
  {
     "title":"I, Frankenstein"
  },
  {
     "title":"Ill Manors"
  },
  {
     "title":"Illuminati"
  },
  {
     "title":"Inception"
  },
  {
     "title":"Independence Day"
  },
  {
     "title":"Infinitely Polar Bear"
  },
  {
     "title":"Inglourious Basterds"
  },
  {
     "title":"In meinem Kopf ein Universum"
  },
  {
     "title":"Inside Out"
  },
  {
     "title":"Insurgent"
  },
  {
     "title":"Interstellar"
  },
  {
     "title":"I Origins - Im Auge des Ursprungs"
  },
  {
     "title":"I, Robot"
  },
  {
     "title":"Iron Sky"
  },
  {
     "title":"Its Kind of a Funny Story"
  },
  {
     "title":"I want to be a soldier"
  },
  {
     "title":"Jack Reacher"
  },
  {
     "title":"Jagdfieber 2"
  },
  {
     "title":"Jagdfieber 3"
  },
  {
     "title":"Jagdfieber"
  },
  {
     "title":"John Wick"
  },
  {
     "title":"Juan of the Dead"
  },
  {
     "title":"Jumper"
  },
  {
     "title":"Kill the Boss"
  },
  {
     "title":"King Kong"
  },
  {
     "title":"Kingsman The Secret Service"
  },
  {
     "title":"Kiss and Kill"
  },
  {
     "title":"Kiss The Cook - So Schmeckt Das Leben"
  },
  {
     "title":"Knock Knock"
  },
  {
     "title":"La Hain"
  },
  {
     "title":"Last of the Living"
  },
  {
     "title":"Let's Be Cops - Die Party Bullen"
  },
  {
     "title":"Like a Dragon"
  },
  {
     "title":"Looper"
  },
  {
     "title":"Lucky Number Slevin"
  },
  {
     "title":"Lucy"
  },
  {
     "title":"Macbeth"
  },
  {
     "title":"Machtlos"
  },
  {
     "title":"Mädelsabend - Nüchtern zu Schüchtern"
  },
  {
     "title":"Man lernt nie aus"
  },
  {
     "title":"Marvel's The Avengers 2 - Age Of Ultron"
  },
  {
     "title":"Matrix"
  },
  {
     "title":"Matrix Reloaded"
  },
  {
     "title":"Minority Report"
  },
  {
     "title":"Mission Impossible - Rogue Nation"
  },
  {
     "title":"Monster Uni"
  },
  {
     "title":"Monuments Men"
  },
  {
     "title":"Mortdecai - Der Teilzeitgauner"
  },
  {
     "title":"Nachts Im Museum - Das Geheimnisvolle Grabmal"
  },
  {
     "title":"Narc"
  },
  {
     "title":"Need for Speed"
  },
  {
     "title":"Neue Vahr Süd"
  },
  {
     "title":"Nightcrawler"
  },
  {
     "title":"Night Moves"
  },
  {
     "title":"Nix Wie Weg - Vom Planeten Erde"
  },
  {
     "title":"Nothing Left to Fear"
  },
  {
     "title":"Oben"
  },
  {
     "title":"Oblivion"
  },
  {
     "title":"Oceans"
  },
  {
     "title":"Oldboy"
  },
  {
     "title":"Open Windows"
  },
  {
     "title":"Operation Kingdom"
  },
  {
     "title":"Paddington"
  },
  {
     "title":"Pan"
  },
  {
     "title":"Passwort Swordfish"
  },
  {
     "title":"Paul - Ein Alien auf der Flucht"
  },
  {
     "title":"Penguins Of Madagascar"
  },
  {
     "title":"Pi"
  },
  {
     "title":"Pixels"
  },
  {
     "title":"Planet der Affen - Prevolution"
  },
  {
     "title":"Planet der Affen - Revolution"
  },
  {
     "title":"Poltergeist"
  },
  {
     "title":"Predestination"
  },
  {
     "title":"Prince of Persia: Der Sand der Zeit"
  },
  {
     "title":"Pulp Fiction"
  },
  {
     "title":"Quarantine 2 Terminal"
  },
  {
     "title":"Raid 2"
  },
  {
     "title":"Rare Exports"
  },
  {
     "title":"Rec 2"
  },
  {
     "title":"Rec 4 - Apocalypse"
  },
  {
     "title":"Reservoir Dogs"
  },
  {
     "title":"Resident Evil - Afterlife"
  },
  {
     "title":"Ride Along 2: Next Level Miami"
  },
  {
     "title":"Rio 2 - Dschungelfieber"
  },
  {
     "title":"RoboCop"
  },
  {
     "title":"Ruhet In Frieden - A Walk Among The Tombstones"
  },
  {
     "title":"Sabotage"
  },
  {
     "title":"Safe - Todsicher"
  },
  {
     "title":"Salt"
  },
  {
     "title":"San Andreas"
  },
  {
     "title":"Schändung"
  },
  {
     "title":"Sex on the Beach 2"
  },
  {
     "title":"Shaun Das Schaf"
  },
  {
     "title":"Shooter"
  },
  {
     "title":"Shrek the Third"
  },
  {
     "title":"Shutter Island"
  },
  {
     "title":"Sieben Jahre in Tibet"
  },
  {
     "title":"Sieben Leben"
  },
  {
     "title":"Slumdog Millionaire"
  },
  {
     "title":"Smokin Aces"
  },
  {
     "title":"Snatch"
  },
  {
     "title":"Snowpiercer"
  },
  {
     "title":"So High"
  },
  {
     "title":"Stereo"
  },
  {
     "title":"Stirb Langsam 4.0"
  },
  {
     "title":"Straight Outta Compton"
  },
  {
     "title":"St. Vincent"
  },
  {
     "title":"S V.H.S"
  },
  {
     "title":"Takers"
  },
  {
     "title":"Ted"
  },
  {
     "title":"Teenage Mutant Ninja Turtles"
  },
  {
     "title":"Terminator Genisys"
  },
  {
     "title":"The 40 Year Old Virgin"
  },
  {
     "title":"The Amazing Spider Man 2 - Rise of Electro"
  },
  {
     "title":"The Big Short"
  },
  {
     "title":"The Book of Eli"
  },
  {
     "title":"The Crime"
  },
  {
     "title":"The Day After Tomorrow"
  },
  {
     "title":"The Dirties"
  },
  {
     "title":"The Drop"
  },
  {
     "title":"The D Train"
  },
  {
     "title":"The Forger - Der Auftrag"
  },
  {
     "title":"The Fountain"
  },
  {
     "title":"The F-Word - Von wegen gute Freunde"
  },
  {
     "title":"The Gambler"
  },
  {
     "title":"The Hornets Nest"
  },
  {
     "title":"The Kings Speech"
  },
  {
     "title":"The Legend of Hercules"
  },
  {
     "title":"The Machinist"
  },
  {
     "title":"The Purge - Anarchy"
  },
  {
     "title":"The Purge - Die Säuberung"
  },
  {
     "title":"The Pyramid - Grab des Grauens"
  },
  {
     "title":"The Raid"
  },
  {
     "title":"The Revenant - Der Rückkehrer"
  },
  {
     "title":"The Ridiculous 6"
  },
  {
     "title":"The Riot Club"
  },
  {
     "title":"The road to Guantanamo"
  },
  {
     "title":"The Silent House"
  },
  {
     "title":"The Wolf of Wall Street"
  },
  {
     "title":"Transcendence"
  },
  {
     "title":"Transformers - Era des Untergangs"
  },
  {
     "title":"Trauzeuge gesucht"
  },
  {
     "title":"Tron Legacy"
  },
  {
     "title":"Unbeugsam"
  },
  {
     "title":"Unknown User"
  },
  {
     "title":"Unleashed - Entfesselt"
  },
  {
     "title":"Urlaubsreif"
  },
  {
     "title":"V.H.S - Eine mörderische Sammlung"
  },
  {
     "title":"V wie Vendetta"
  },
  {
     "title":"Wall E"
  },
  {
     "title":"Wall Street - Geld schläft nicht"
  },
  {
     "title":"Waynes World 2"
  },
  {
     "title":"Waynes World"
  },
  {
     "title":"Wedding Crashers"
  },
  {
     "title":"Wer ist Hanna"
  },
  {
     "title":"Who Am I"
  },
  {
     "title":"Wolf Creek 2"
  },
  {
     "title":"Wolf"
  },
  {
     "title":"World War Z"
  },
  {
     "title":"Zahnfee auf Bewährung"
  },
  {
     "title":"Ziemlich beste Freunde"
  },
  {
     "title":"Zombie Apocalypse - The Payback"
  },
  {
     "title":"Zombieland"
  }]